%YAML 1.1
%TAG !u! tag:unity3d.com,2011:
--- !u!1045 &1
EditorBuildSettings:
  m_ObjectHideFlags: 0
  serializedVersion: 2
  m_Scenes:
  - enabled: 1
    path: Assets/Challenge 1/Challenge 1.unity
    guid: b6cc3e14dbc3342c8ab192babf679766
  - enabled: 1
    path: Assets/Challenge 2/Challenge 2.unity
    guid: f695fe0c51d8449d2b49648dad174255
  m_configObjects: {}
